{
  "message": "ë¬¸ì˜ê¸€ ëª©ë¡ ì¡°íšŒê°€ ì™„ë£Œë˜ì—ˆìŠµë‹ˆë‹¤.",
  "data": {
    "qnaList": [
      {
        "qnaId": 104,
        "title": "ë¹„ë°€ê¸€ì…ë‹ˆë‹¤. ğŸ”’",
        "author": {
          "nickname": "ì½”ë”©**"
        },
        "createdAt": "2025-06-30T22:34:18Z",
        "status": "ë‹µë³€ì™„ë£Œ",
        "isPrivate": true
      },
      {
        "qnaId": 102,
        "title": "ì‚¬ì´ì¦ˆ ê´€ë ¨ ë¬¸ì˜ë“œë¦½ë‹ˆë‹¤.",
        "author": {
          "nickname": "íŒ¨ì…˜ì™•"
        },
        "createdAt": "2025-06-29T11:20:05Z",
        "status": "ë‹µë³€ì™„ë£Œ",
        "isPrivate": false
      },
      {
        "qnaId": 99,
        "title": "ì¬ì…ê³  ì˜ˆì • ë¬¸ì˜",
        "author": {
          "nickname": "ê¸°ë‹¤ë¦¼"
        },
        "createdAt": "2025-06-28T18:45:13Z",
        "status": "ë‹µë³€ëŒ€ê¸°",
        "isPrivate": false
      }
    ],
    "pageInfo": {
      "page": 0,
      "size": 10,
      "totalElements": 23,
      "totalPages": 3,
      "isLast": false
    }
  }
}